klima_off,155 (klima),3,00,00,2C,0,,,,
klima_on(d2_inkr),155 (klima),3,80,00,30,0,,,,
1500,108 (fordulatszam),8,21,18,78,00,00,00,00,00
850,108 (fordulatszam),8,11,0D,44,00,00,00,00,00
ablak_futes,23A (light_switch),3,00,03,00,0,,,,
kezifek_locked,220 (kezifek),1,18,0,,,,,,
kezifek_released,220 (kezifek),1,08,0,,,,,,
pedals_kuplung,115 (pedals),3,24,FF,10,0,,,,
pedals_fek,115 (pedals),3,28,FF,60,0,,,,
pedals_idle(d2 increment),115 (pedals),3,20,FF,50,0,,,,
del,115,3,20,FF,90,0,,,,
fek_pushed,360 (fek),3,00,00,40,0,,,,
fek_idle,360 (fek),3,00,00,00,0,,,,
ablaktorlo_gorgo_max,175 (wheel_joys),8,00,00,00,00,CC,00,00,00
ablaktorlo_gorog_min,175 (wheel_joys),8,00,00,00,00,33,00,00,00
index_idle,260 (index),3,00,40,80,0,,,,
elakadasj,260 (index),3,1F,40,80,0,,,,
index_jobb,260 (index),3,3A,40,80,0,,,,
index_bal,260 (index),3,25,40,80,0,,,,
lights_reflektor,350 (front_fog),2,46,00,0,,,,,
lights_auto,23A (light_switch),3,04,00,00,0,,,,
lights_tompitott,23A (light_switch),3,00,A0,00,0,,,,
lights_helyzetj,23A (light_switch),3,00,20,00,0,,,,
lights_off,23A (light_switch),3,00,00,00,0,,,,
