0.04656,621,0,0,8,00,48,50,00,00,00,00,00
0.04760,108 (fordulatszam),0,0,8,11,0D,38,00,00,00,00,00
0.04773,190,0,0,5,00,00,9D,07,C0,0,,
0.05142,315,0,0,1,00,0,,,,,,
0.11124,621,0,0,8,00,48,50,00,00,00,00,00
0.14608,108 (fordulatszam),0,0,8,11,0D,40,00,00,00,00,00
0.21557,621,0,0,8,00,48,50,00,00,00,00,00
0.24102,108 (fordulatszam),0,0,8,11,0D,40,00,00,00,00,00
0.24102,130,0,0,5,00,49,A0,49,00,0,,
0.28553,360 (fek),0,0,3,00,00,00,0,,,,
0.31543,621,0,0,8,00,48,50,00,00,00,00,00
0.34052,340,0,0,2,00,00,0,,,,,
0.34110,350 (front_fog),0,0,2,02,00,0,,,,,
0.34110,108 (fordulatszam),0,0,8,11,0D,4C,00,00,00,00,00
0.34110,500 (wheel_pos),0,0,2,00,6A,0,,,,,
0.41622,621,0,0,8,00,48,50,00,00,00,00,00
0.46244,108 (fordulatszam),0,0,8,11,0D,4C,00,00,00,00,00
0.50556,11A,0,0,3,00,00,00,0,,,,
0.54678,145,0,0,8,00,00,C6,7D,00,00,00,00
0.54678,621,0,0,8,00,48,50,00,00,00,00,00
0.54678,405 (balelso_ajto),0,0,6,00,00,00,00,00,00,0,
0.54774,230 (bal_hatso_ajto),0,0,5,00,00,00,00,00,0,,
0.54774,108 (fordulatszam),0,0,8,11,0D,4C,00,00,00,00,00
0.57705,220 (kezifek),0,0,1,18,0,,,,,,
0.62405,621,0,0,8,00,48,50,00,00,00,00,00
0.65102,108 (fordulatszam),0,0,8,11,0D,4C,00,00,00,00,00
0.71589,621,0,0,8,00,48,50,00,00,00,00,00
0.77203,90,0,0,2,03,00,0,,,,,
0.77203,445,0,0,2,00,5B,0,,,,,
0.77203,108 (fordulatszam),0,0,8,11,0D,48,00,00,00,00,00
0.77203,130,0,0,5,00,49,A2,49,00,0,,
0.77203,440,0,0,8,50,68,90,18,00,C0,C0,12
0.81543,621,0,0,8,00,48,50,00,00,00,00,00
0.84936,108 (fordulatszam),0,0,8,11,0D,4C,00,00,00,00,00
0.91122,621,0,0,8,00,48,50,00,00,00,00,00
0.94197,108 (fordulatszam),0,0,8,11,0D,4C,00,00,00,00,00
0.98439,330,0,0,1,0F,0,,,,,,
1.02398,155 (klima),0,0,3,00,00,22,0,,,,
1.02398,621,0,0,8,00,48,50,00,00,00,00,00
1.05297,108 (fordulatszam),0,0,8,11,0D,38,00,00,00,00,00
1.07471,190,0,0,5,00,00,9D,07,C0,0,,
1.11457,621,0,0,8,00,48,50,00,00,00,00,00
1.16776,170,0,0,1,44,0,,,,,,
1.16880,108 (fordulatszam),0,0,8,11,0D,3C,00,00,00,00,00
1.16880,305,0,0,3,00,81,74,0,,,,
1.21059,621,0,0,8,00,48,50,00,00,00,00,00
1.26434,108 (fordulatszam),0,0,8,11,0D,44,00,00,00,00,00
1.26680,130,0,0,5,00,49,A5,49,00,0,,
1.30905,420 (jobbelso_ajto),0,0,5,00,00,00,00,00,0,,
1.31010,370,0,0,3,04,00,00,0,,,,
1.34248,235 (brightness),0,0,2,00,00,0,,,,,
1.34248,23A (light_switch),0,0,3,00,00,00,0,,,,
1.34248,621,0,0,8,00,48,50,00,00,00,00,00
1.34248,426,0,0,1,01,0,,,,,,
1.34346,108 (fordulatszam),0,0,8,11,0D,44,00,00,00,00,00
1.41497,621,0,0,8,00,48,50,00,00,00,00,00
1.48143,108 (fordulatszam),0,0,8,11,0D,50,00,00,00,00,00
1.52771,115 (pedals),0,0,3,20,FF,70,0,,,,
1.52771,621,0,0,8,00,48,50,00,00,00,00,00
1.55596,108 (fordulatszam),0,0,8,11,0D,54,00,00,00,00,00
1.58299,315,0,0,1,00,0,,,,,,
1.60745,220 (kezifek),0,0,1,18,0,,,,,,
1.65318,621,0,0,8,00,48,50,00,00,00,00,00
1.65318,108 (fordulatszam),0,0,8,11,0D,50,00,00,00,00,00
1.70209,621,0,0,8,00,48,50,00,00,00,00,00
1.76063,90,0,0,2,03,00,0,,,,,
1.76063,445,0,0,2,00,5B,0,,,,,
1.76063,108 (fordulatszam),0,0,8,11,0D,40,00,00,00,00,00
1.76163,130,0,0,5,00,49,A8,49,00,0,,
1.76163,440,0,0,8,50,68,94,18,00,C0,C0,12
1.76163,626,0,0,8,00,11,00,00,00,00,00,00
1.78373,360 (fek),0,0,3,00,00,00,0,,,,
1.81590,621,0,0,8,00,48,50,00,00,00,00,00
1.84166,340,0,0,2,00,00,0,,,,,
1.84166,350 (front_fog),0,0,2,02,00,0,,,,,
1.84166,108 (fordulatszam),0,0,8,11,0D,3C,00,00,00,00,00
1.84166,500 (wheel_pos),0,0,2,00,6A,0,,,,,
1.90518,621,0,0,8,00,48,50,00,00,00,00,00
1.94470,108 (fordulatszam),0,0,8,11,0D,3C,00,00,00,00,00
1.98384,330,0,0,1,0F,0,,,,,,
2.02444,155 (klima),0,0,3,00,00,22,0,,,,
2.02444,11A,0,0,3,00,00,00,0,,,,
2.02444,145,0,0,8,00,00,C6,7D,00,00,00,00
2.02444,621,0,0,8,00,48,50,00,00,00,00,00
2.02444,405 (balelso_ajto),0,0,6,00,00,00,00,00,00,0,
2.02444,230 (bal_hatso_ajto),0,0,5,00,00,00,00,00,0,,
2.05258,108 (fordulatszam),0,0,8,11,0D,50,00,00,00,00,00
2.07188,190,0,0,5,00,00,9D,07,C0,0,,
2.10945,625,0,0,8,00,00,10,00,00,00,00,00
2.14621,621,0,0,8,00,48,50,00,00,00,00,00
2.14621,108 (fordulatszam),0,0,8,11,0D,50,00,00,00,00,00
2.20500,621,0,0,8,00,48,50,00,00,00,00,00
2.27168,108 (fordulatszam),0,0,8,11,0D,54,00,00,00,00,00
2.27168,130,0,0,5,00,49,A9,49,00,0,,
2.30531,621,0,0,8,00,48,50,00,00,00,00,00
2.34843,108 (fordulatszam),0,0,8,11,0D,50,00,00,00,00,00
2.40357,621,0,0,8,00,48,50,00,00,00,00,00
2.47027,108 (fordulatszam),0,0,8,11,0D,48,00,00,00,00,00
2.50039,621,0,0,8,00,48,50,00,00,00,00,00
2.55769,108 (fordulatszam),0,0,8,11,0D,44,00,00,00,00,00
2.57945,220 (kezifek),0,0,1,18,0,,,,,,
2.60207,621,0,0,8,00,48,50,00,00,00,00,00
2.64224,170,0,0,1,44,0,,,,,,
2.64224,108 (fordulatszam),0,0,8,11,0D,44,00,00,00,00,00
2.66311,305,0,0,3,00,81,74,0,,,,
2.70228,621,0,0,8,00,48,50,00,00,00,00,00
2.77105,90,0,0,2,03,00,0,,,,,
2.77784,445,0,0,2,00,5B,0,,,,,
2.77784,108 (fordulatszam),0,0,8,11,0D,3C,00,00,00,00,00
2.77784,130,0,0,5,00,49,AC,49,00,0,,
2.77882,440,0,0,8,50,68,98,18,00,C0,C0,12
2.81440,420 (jobbelso_ajto),0,0,5,00,00,00,00,00,0,,
2.81540,370,0,0,3,04,00,00,0,,,,
2.81540,235 (brightness),0,0,2,00,00,0,,,,,
2.83397,621,0,0,8,00,48,50,00,00,00,00,00
2.83706,23A (light_switch),0,0,3,00,00,00,0,,,,
2.83806,426,0,0,1,01,0,,,,,,
2.83806,108 (fordulatszam),0,0,8,11,0D,44,00,00,00,00,00
2.90076,621,0,0,8,00,48,50,00,00,00,00,00
2.95029,108 (fordulatszam),0,0,8,11,0D,44,00,00,00,00,00
2.98330,330,0,0,1,0F,0,,,,,,
3.00724,115 (pedals),0,0,3,20,FF,70,0,,,,
3.00724,155 (klima),0,0,3,00,00,22,0,,,,
3.01633,621,0,0,8,00,48,50,00,00,00,00,00
3.04755,108 (fordulatszam),0,0,8,11,0D,48,00,00,00,00,00
3.07205,190,0,0,5,00,00,9D,07,C0,0,,
3.11523,315,0,0,1,00,0,,,,,,
3.11523,621,0,0,8,00,48,50,00,00,00,00,00
3.13720,108 (fordulatszam),0,0,8,11,0D,54,00,00,00,00,00
3.21516,621,0,0,8,00,48,50,00,00,00,00,00
3.26810,108 (fordulatszam),0,0,8,11,0D,4C,00,00,00,00,00
3.26810,130,0,0,5,00,49,AF,49,00,0,,
3.28928,360 (fek),0,0,3,00,00,00,0,,,,
3.31537,621,0,0,8,00,48,50,00,00,00,00,00
3.35577,340,0,0,2,00,00,0,,,,,
3.35577,350 (front_fog),0,0,2,02,00,0,,,,,
3.35577,108 (fordulatszam),0,0,8,11,0D,48,00,00,00,00,00
3.35577,500 (wheel_pos),0,0,2,00,6A,0,,,,,
3.41526,621,0,0,8,00,48,50,00,00,00,00,00
3.48016,108 (fordulatszam),0,0,8,11,0D,44,00,00,00,00,00
3.52110,11A,0,0,3,00,00,00,0,,,,
3.52110,145,0,0,8,00,00,C6,7D,00,00,00,00
3.52110,621,0,0,8,00,48,50,00,00,00,00,00
3.52110,405 (balelso_ajto),0,0,6,00,00,00,00,00,00,0,
3.54913,230 (bal_hatso_ajto),0,0,5,00,00,00,00,00,0,,
3.54913,108 (fordulatszam),0,0,8,11,0D,44,00,00,00,00,00
3.56686,220 (kezifek),0,0,1,18,0,,,,,,
3.60295,500 (wheel_pos),0,0,2,00,69,0,,,,,
3.62415,621,0,0,8,00,48,50,00,00,00,00,00
3.63294,108 (fordulatszam),0,0,8,11,0D,44,00,00,00,00,00
3.66893,500 (wheel_pos),0,0,2,00,6A,0,,,,,
3.71855,621,0,0,8,00,48,50,00,00,00,00,00
3.74238,90,0,0,2,03,00,0,,,,,
3.74238,445,0,0,2,00,5B,0,,,,,
3.74238,108 (fordulatszam),0,0,8,11,0D,44,00,00,00,00,00
3.74238,130,0,0,5,00,49,B1,49,00,0,,
3.76434,440,0,0,8,50,68,9C,18,00,C0,C0,12
3.80427,621,0,0,8,00,48,50,00,00,00,00,00
3.87748,108 (fordulatszam),0,0,8,11,0D,44,00,00,00,00,00
3.90728,621,0,0,8,00,48,50,00,00,00,00,00
3.94029,108 (fordulatszam),0,0,8,11,0D,50,00,00,00,00,00
3.98212,330,0,0,1,0F,0,,,,,,
4.01840,155 (klima),0,0,3,00,00,22,0,,,,
4.01900,621,0,0,8,00,48,50,00,00,00,00,00
4.03982,108 (fordulatszam),0,0,8,11,0D,58,00,00,00,00,00
4.08297,190,0,0,5,00,00,9D,07,C0,0,,
4.13243,621,0,0,8,00,48,50,00,00,00,00,00
4.13243,170,0,0,1,44,0,,,,,,
4.15200,108 (fordulatszam),0,0,8,11,0D,54,00,00,00,00,00
4.16594,305,0,0,3,00,81,74,0,,,,
4.21560,621,0,0,8,00,48,50,00,00,00,00,00
4.27012,108 (fordulatszam),0,0,8,11,0D,54,00,00,00,00,00
4.27012,130,0,0,5,00,49,B3,49,00,0,,
4.29155,420 (jobbelso_ajto),0,0,5,00,00,00,00,00,0,,
4.31246,370,0,0,3,04,00,00,0,,,,
4.31246,235 (brightness),0,0,2,00,00,0,,,,,
4.33635,621,0,0,8,00,48,50,00,00,00,00,00
4.33735,23A (light_switch),0,0,3,00,00,00,0,,,,
4.33735,426,0,0,1,01,0,,,,,,
4.33735,108 (fordulatszam),0,0,8,11,0D,3C,00,00,00,00,00
4.41665,621,0,0,8,00,48,50,00,00,00,00,00
4.49437,108 (fordulatszam),0,0,8,11,0D,38,00,00,00,00,00
4.49437,115 (pedals),0,0,3,20,FF,90,0,,,,
4.51400,621,0,0,8,00,48,50,00,00,00,00,00
4.53355,108 (fordulatszam),0,0,8,11,0D,40,00,00,00,00,00
4.57079,220 (kezifek),0,0,1,18,0,,,,,,
4.59324,315,0,0,1,00,0,,,,,,
4.61508,621,0,0,8,00,48,50,00,00,00,00,00
4.63662,108 (fordulatszam),0,0,8,11,0D,40,00,00,00,00,00
4.71564,621,0,0,8,00,48,50,00,00,00,00,00
4.77109,90,0,0,2,03,00,0,,,,,
4.77109,445,0,0,2,00,5B,0,,,,,
4.77109,108 (fordulatszam),0,0,8,11,0D,48,00,00,00,00,00
4.77212,130,0,0,5,00,49,B6,49,00,0,,
4.77212,440,0,0,8,50,68,A0,18,00,C0,C0,12
4.77212,626,0,0,8,00,11,00,00,00,00,00,00
4.78887,360 (fek),0,0,3,00,00,00,0,,,,
4.81801,621,0,0,8,00,48,50,00,00,00,00,00
4.83927,340,0,0,2,00,00,0,,,,,
4.83927,350 (front_fog),0,0,2,02,00,0,,,,,
4.83927,108 (fordulatszam),0,0,8,11,0D,48,00,00,00,00,00
4.83927,500 (wheel_pos),0,0,2,00,6A,0,,,,,
4.91522,621,0,0,8,00,48,50,00,00,00,00,00
4.95660,108 (fordulatszam),0,0,8,11,0D,4C,00,00,00,00,00
4.98379,330,0,0,1,0F,0,,,,,,
5.02063,155 (klima),0,0,3,00,00,22,0,,,,
5.02063,11A,0,0,3,00,00,00,0,,,,
5.02163,145,0,0,8,00,00,C6,7D,00,00,00,00
5.02163,621,0,0,8,00,48,50,00,00,00,00,00
5.02540,405 (balelso_ajto),0,0,6,00,00,00,00,00,00,0,
5.05106,230 (bal_hatso_ajto),0,0,5,00,00,00,00,00,0,,
5.05106,108 (fordulatszam),0,0,8,11,0D,4C,00,00,00,00,00
5.10034,190,0,0,5,00,00,9D,07,C0,0,,
5.13192,621,0,0,8,00,48,50,00,00,00,00,00
5.15549,108 (fordulatszam),0,0,8,11,0D,48,00,00,00,00,00
5.15549,625,0,0,8,00,00,10,00,00,00,00,00
5.21559,621,0,0,8,00,48,50,00,00,00,00,00
5.24586,108 (fordulatszam),0,0,8,11,0D,44,00,00,00,00,00
5.24586,130,0,0,5,00,49,B9,49,00,0,,
5.28319,230 (bal_hatso_ajto),0,0,5,00,00,00,00,00,0,,
5.33300,170,0,0,1,42,0,,,,,,
5.33300,370,0,0,3,00,00,00,0,,,,
5.33300,420 (jobbelso_ajto),0,0,5,00,00,00,00,00,0,,
5.33300,405 (balelso_ajto),0,0,6,00,00,00,00,00,00,0,
5.33300,220 (kezifek),0,0,1,08,0,,,,,,
5.33400,621,0,0,8,01,20,00,00,00,00,00,00
5.33400,145,0,0,8,00,00,06,7D,00,00,00,00
5.33400,23A (light_switch),0,0,3,00,00,00,0,,,,
5.33400,175 (wheel_joys),0,0,8,00,00,00,00,CC,00,00,00
5.33400,360 (fek),0,0,3,00,00,00,0,,,,
5.36156,108 (fordulatszam),0,0,8,10,0D,48,00,00,00,00,00
5.38529,230 (bal_hatso_ajto),0,0,5,00,00,00,00,00,0,,
5.46068,170,0,0,1,42,0,,,,,,
5.46068,370,0,0,3,00,00,00,0,,,,
5.46068,621,0,0,8,00,20,00,00,00,00,00,00
5.46068,220 (kezifek),0,0,1,08,0,,,,,,
5.46168,108 (fordulatszam),0,0,8,10,0D,48,00,00,00,00,00
5.51613,621,0,0,8,00,20,00,00,00,00,00,00
5.56092,108 (fordulatszam),0,0,8,10,0D,48,00,00,00,00,00
5.56092,621,0,0,8,01,00,20,00,00,00,00,00
5.56092,170,0,0,1,40,0,,,,,,
5.58958,175 (wheel_joys),0,0,8,00,00,00,00,CC,00,00,00
5.58958,370,0,0,3,00,00,00,0,,,,
5.63569,108 (fordulatszam),0,0,8,10,0D,48,00,00,00,00,00
5.67230,305,0,0,3,00,81,74,0,,,,
5.72055,445,0,0,2,00,5B,0,,,,,
5.76970,108 (fordulatszam),0,0,8,10,0D,48,00,00,00,00,00
5.76970,130,0,0,5,00,49,B9,49,00,0,,
5.76970,440,0,0,8,50,68,A4,18,00,C0,C0,12
5.79999,420 (jobbelso_ajto),0,0,5,00,00,00,00,00,0,,
5.83545,235 (brightness),0,0,2,00,00,0,,,,,
5.83545,23A (light_switch),0,0,3,00,00,00,0,,,,
5.86425,426,0,0,1,01,0,,,,,,
5.86425,108 (fordulatszam),0,0,8,10,0D,48,00,00,00,00,00
5.93299,108 (fordulatszam),0,0,8,10,0D,48,00,00,00,00,00
5.97297,330,0,0,1,0F,0,,,,,,
6.01403,115 (pedals),0,0,3,00,FF,C0,0,,,,
6.01403,155 (klima),0,0,3,00,00,22,0,,,,
6.03334,108 (fordulatszam),0,0,8,10,0D,48,00,00,00,00,00
6.09973,190,0,0,5,00,00,9D,07,C0,0,,
6.16945,315,0,0,1,00,0,,,,,,
6.16945,108 (fordulatszam),0,0,8,10,0D,48,00,00,00,00,00
6.23097,108 (fordulatszam),0,0,8,10,0D,48,00,00,00,00,00
6.30858,130,0,0,5,00,49,B9,49,00,0,,
6.30858,230 (bal_hatso_ajto),0,0,5,00,00,00,00,00,0,,
6.30858,405 (balelso_ajto),0,0,6,00,00,00,00,00,00,0,
6.33476,220 (kezifek),0,0,1,08,0,,,,,,
6.33476,340,0,0,2,00,00,0,,,,,
6.33476,350 (front_fog),0,0,2,02,00,0,,,,,
6.35930,108 (fordulatszam),0,0,8,10,0D,48,00,00,00,00,00
6.35930,500 (wheel_pos),0,0,2,00,6A,0,,,,,
6.43208,108 (fordulatszam),0,0,8,10,0D,48,00,00,00,00,00
6.50942,11A,0,0,3,00,00,00,0,,,,
6.50942,145,0,0,8,00,00,06,7D,00,00,00,00
6.53297,108 (fordulatszam),0,0,8,10,0D,48,00,00,00,00,00
6.63402,108 (fordulatszam),0,0,8,10,0D,48,00,00,00,00,00
6.74442,445,0,0,2,00,5B,0,,,,,
6.74442,108 (fordulatszam),0,0,8,10,0D,48,00,00,00,00,00
6.74442,130,0,0,5,00,49,B9,49,00,0,,
6.77102,440,0,0,8,50,68,A8,00,00,C0,C0,12
6.81245,360 (fek),0,0,3,00,00,00,0,,,,
6.85589,108 (fordulatszam),0,0,8,10,0D,48,00,00,00,00,00
6.85589,170,0,0,1,40,0,,,,,,
6.93703,108 (fordulatszam),0,0,8,10,0D,48,00,00,00,00,00
6.97145,330,0,0,1,0F,0,,,,,,
7.00476,155 (klima),0,0,3,00,00,22,0,,,,
7.03799,108 (fordulatszam),0,0,8,10,0D,48,00,00,00,00,00
7.06735,370,0,0,3,00,00,00,0,,,,
7.09354,190,0,0,5,00,00,9D,07,C0,0,,
7.14895,108 (fordulatszam),0,0,8,10,0D,48,00,00,00,00,00
7.17169,305,0,0,3,00,81,74,0,,,,
7.22838,108 (fordulatszam),0,0,8,10,0D,48,00,00,00,00,00
7.29505,130,0,0,5,00,49,B9,49,00,0,,
7.29505,420 (jobbelso_ajto),0,0,5,00,00,00,00,00,0,,
7.32025,235 (brightness),0,0,2,00,00,0,,,,,
7.32025,23A (light_switch),0,0,3,00,00,00,0,,,,
7.33806,426,0,0,1,01,0,,,,,,
7.34491,220 (kezifek),0,0,1,08,0,,,,,,
7.34491,108 (fordulatszam),0,0,8,10,0D,48,00,00,00,00,00
7.42377,108 (fordulatszam),0,0,8,10,0D,48,00,00,00,00,00
7.50361,115 (pedals),0,0,3,00,FF,C0,0,,,,
7.53901,108 (fordulatszam),0,0,8,10,0D,48,00,00,00,00,00
7.60560,315,0,0,1,00,0,,,,,,
7.65082,108 (fordulatszam),0,0,8,10,0D,48,00,00,00,00,00
7.72730,445,0,0,2,00,5B,0,,,,,
7.78365,108 (fordulatszam),0,0,8,10,0D,48,00,00,00,00,00
7.78365,130,0,0,5,00,49,B9,49,00,0,,
7.78365,440,0,0,8,50,68,AC,00,00,C0,C0,12
7.78365,626,0,0,8,00,11,00,00,00,00,00,00
7.80503,230 (bal_hatso_ajto),0,0,5,00,00,00,00,00,0,,
7.80503,405 (balelso_ajto),0,0,6,00,00,00,00,00,00,0,
7.83675,340,0,0,2,00,00,0,,,,,
7.83675,350 (front_fog),0,0,2,02,00,0,,,,,
7.86055,108 (fordulatszam),0,0,8,10,0D,48,00,00,00,00,00
7.86055,500 (wheel_pos),0,0,2,00,6A,0,,,,,
7.93830,108 (fordulatszam),0,0,8,10,0D,48,00,00,00,00,00
7.98738,330,0,0,1,0F,0,,,,,,
7.98738,155 (klima),0,0,3,00,00,22,0,,,,
8.02468,11A,0,0,3,00,00,00,0,,,,
8.02468,145,0,0,8,00,00,06,7D,00,00,00,00
8.04893,108 (fordulatszam),0,0,8,10,0D,48,00,00,00,00,00
8.09238,190,0,0,5,00,00,9D,07,C0,0,,
8.17011,108 (fordulatszam),0,0,8,10,0D,48,00,00,00,00,00
8.22615,108 (fordulatszam),0,0,8,10,0D,48,00,00,00,00,00
8.28638,130,0,0,5,00,49,B9,49,00,0,,
8.31268,220 (kezifek),0,0,1,08,0,,,,,,
8.35337,360 (fek),0,0,3,00,00,00,0,,,,
8.35337,108 (fordulatszam),0,0,8,10,0D,48,00,00,00,00,00
8.35337,170,0,0,1,40,0,,,,,,
8.43763,108 (fordulatszam),0,0,8,10,0D,48,00,00,00,00,00
8.52721,108 (fordulatszam),0,0,8,10,0D,48,00,00,00,00,00
8.60239,370,0,0,3,00,00,00,0,,,,
8.63925,108 (fordulatszam),0,0,8,10,0D,48,00,00,00,00,00
8.66591,305,0,0,3,00,81,74,0,,,,
8.72178,445,0,0,2,00,5B,0,,,,,
8.78746,108 (fordulatszam),0,0,8,10,0D,48,00,00,00,00,00
8.78746,130,0,0,5,00,49,B9,49,00,0,,
8.78746,440,0,0,8,50,68,B0,00,00,C0,C0,12
8.78746,420 (jobbelso_ajto),0,0,5,00,00,00,00,00,0,,
8.81985,235 (brightness),0,0,2,00,00,0,,,,,
8.81985,23A (light_switch),0,0,3,00,00,00,0,,,,
8.85655,426,0,0,1,01,0,,,,,,
8.85655,108 (fordulatszam),0,0,8,10,0D,48,00,00,00,00,00
8.93771,108 (fordulatszam),0,0,8,10,0D,48,00,00,00,00,00
8.99834,330,0,0,1,0F,0,,,,,,
8.99834,115 (pedals),0,0,3,00,FF,C0,0,,,,
8.99834,155 (klima),0,0,3,00,00,22,0,,,,
9.02539,108 (fordulatszam),0,0,8,10,0D,48,00,00,00,00,00
9.09141,190,0,0,5,00,00,9D,07,C0,0,,
9.14156,315,0,0,1,00,0,,,,,,
9.14156,108 (fordulatszam),0,0,8,10,0D,48,00,00,00,00,00
9.23836,108 (fordulatszam),0,0,8,10,0D,48,00,00,00,00,00
9.29762,130,0,0,5,00,49,B9,49,00,0,,
9.29762,230 (bal_hatso_ajto),0,0,5,00,00,00,00,00,0,,
9.32300,405 (balelso_ajto),0,0,6,00,00,00,00,00,00,0,
9.34070,220 (kezifek),0,0,1,08,0,,,,,,
9.34070,340,0,0,2,00,00,0,,,,,
9.34070,350 (front_fog),0,0,2,02,00,0,,,,,
9.34070,108 (fordulatszam),0,0,8,10,0D,48,00,00,00,00,00
9.34070,500 (wheel_pos),0,0,2,00,6A,0,,,,,
9.43794,108 (fordulatszam),0,0,8,10,0D,48,00,00,00,00,00
9.50531,11A,0,0,3,00,00,00,0,,,,
9.53903,145,0,0,8,00,00,06,7D,00,00,00,00
9.53903,108 (fordulatszam),0,0,8,10,0D,48,00,00,00,00,00
9.63733,108 (fordulatszam),0,0,8,10,0D,48,00,00,00,00,00
9.72955,445,0,0,2,00,5B,0,,,,,
9.78121,108 (fordulatszam),0,0,8,10,0D,48,00,00,00,00,00
9.78121,130,0,0,5,00,49,B9,49,00,0,,
9.78121,440,0,0,8,50,68,B4,00,00,C0,C0,12
9.82427,360 (fek),0,0,3,00,00,00,0,,,,
9.85617,108 (fordulatszam),0,0,8,10,0D,48,00,00,00,00,00
9.85617,170,0,0,1,40,0,,,,,,
9.93717,108 (fordulatszam),0,0,8,10,0D,48,00,00,00,00,00
9.97926,330,0,0,1,0F,0,,,,,,
10.0040,155 (klima),0,0,3,00,00,22,0,,,,
10.0369,108 (fordulatszam),0,0,8,10,0D,48,00,00,00,00,00
10.0546,370,0,0,3,00,00,00,0,,,,
10.0933,190,0,0,5,00,00,9D,07,C0,0,,
10.1432,108 (fordulatszam),0,0,8,10,0D,48,00,00,00,00,00
10.1671,305,0,0,3,00,81,74,0,,,,
10.2223,108 (fordulatszam),0,0,8,10,0D,48,00,00,00,00,00
10.2883,130,0,0,5,00,49,B9,49,00,0,,
10.2883,420 (jobbelso_ajto),0,0,5,00,00,00,00,00,0,,
10.3218,235 (brightness),0,0,2,00,00,0,,,,,
10.3218,23A (light_switch),0,0,3,00,00,00,0,,,,
10.3495,426,0,0,1,01,0,,,,,,
10.3495,220 (kezifek),0,0,1,08,0,,,,,,
10.3495,108 (fordulatszam),0,0,8,10,0D,48,00,00,00,00,00
10.4367,108 (fordulatszam),0,0,8,10,0D,48,00,00,00,00,00
10.5037,115 (pedals),0,0,3,00,FF,C0,0,,,,
10.5389,108 (fordulatszam),0,0,8,10,0D,48,00,00,00,00,00
10.5896,315,0,0,1,00,0,,,,,,
10.6402,108 (fordulatszam),0,0,8,10,0D,48,00,00,00,00,00
10.7198,445,0,0,2,00,5B,0,,,,,
10.7947,108 (fordulatszam),0,0,8,10,0D,48,00,00,00,00,00
10.7947,130,0,0,5,00,49,B9,49,00,0,,
10.7957,440,0,0,8,50,68,B8,00,00,C0,C0,12
10.7957,626,0,0,8,00,11,00,00,00,00,00,00
10.7957,230 (bal_hatso_ajto),0,0,5,00,00,00,00,00,0,,
10.8361,405 (balelso_ajto),0,0,6,00,00,00,00,00,00,0,
10.8361,340,0,0,2,00,00,0,,,,,
10.8361,350 (front_fog),0,0,2,02,00,0,,,,,
10.8544,108 (fordulatszam),0,0,8,10,0D,48,00,00,00,00,00
10.8544,500 (wheel_pos),0,0,2,00,6A,0,,,,,
10.9276,108 (fordulatszam),0,0,8,10,0D,48,00,00,00,00,00
10.9897,330,0,0,1,0F,0,,,,,,
10.9897,155 (klima),0,0,3,00,00,22,0,,,,
11.0256,11A,0,0,3,00,00,00,0,,,,
11.0256,145,0,0,8,00,00,06,7D,00,00,00,00
11.0489,108 (fordulatszam),0,0,8,10,0D,48,00,00,00,00,00
11.0881,190,0,0,5,00,00,9D,07,C0,0,,
11.1372,108 (fordulatszam),0,0,8,10,0D,48,00,00,00,00,00
11.2370,108 (fordulatszam),0,0,8,10,0D,48,00,00,00,00,00
11.2964,130,0,0,5,00,49,B9,49,00,0,,
11.3367,360 (fek),0,0,3,00,00,00,0,,,,
11.3367,220 (kezifek),0,0,1,08,0,,,,,,
11.3367,108 (fordulatszam),0,0,8,10,0D,48,00,00,00,00,00
11.3545,170,0,0,1,40,0,,,,,,
11.4383,108 (fordulatszam),0,0,8,10,0D,48,00,00,00,00,00
11.5372,108 (fordulatszam),0,0,8,10,0D,48,00,00,00,00,00
11.6112,370,0,0,3,00,00,00,0,,,,
11.6382,108 (fordulatszam),0,0,8,10,0D,48,00,00,00,00,00
11.6561,305,0,0,3,00,81,74,0,,,,
11.7255,445,0,0,2,00,5B,0,,,,,
11.8218,108 (fordulatszam),0,0,8,10,0D,48,00,00,00,00,00
11.8372,130,0,0,5,00,49,B9,49,00,0,,
11.8382,440,0,0,8,50,68,BC,00,00,C0,C0,12
11.8382,420 (jobbelso_ajto),0,0,5,00,00,00,00,00,0,,
11.8382,235 (brightness),0,0,2,00,00,0,,,,,
11.8382,23A (light_switch),0,0,3,00,00,00,0,,,,
11.8382,426,0,0,1,01,0,,,,,,
11.8382,108 (fordulatszam),0,0,8,10,0D,48,00,00,00,00,00
11.9266,108 (fordulatszam),0,0,8,10,0D,48,00,00,00,00,00
11.9735,330,0,0,1,0F,0,,,,,,
12.0059,115 (pedals),0,0,3,00,FF,C0,0,,,,
12.0059,155 (klima),0,0,3,00,00,22,0,,,,
12.0391,108 (fordulatszam),0,0,8,10,0D,48,00,00,00,00,00
12.0888,190,0,0,5,00,00,9D,07,C0,0,,
12.1523,315,0,0,1,00,0,,,,,,
12.1523,108 (fordulatszam),0,0,8,10,0D,48,00,00,00,00,00
12.2378,108 (fordulatszam),0,0,8,10,0D,48,00,00,00,00,00
12.3000,130,0,0,5,00,49,B9,49,00,0,,
12.3000,230 (bal_hatso_ajto),0,0,5,00,00,00,00,00,0,,
12.3217,405 (balelso_ajto),0,0,6,00,00,00,00,00,00,0,
12.3217,220 (kezifek),0,0,1,08,0,,,,,,
12.3406,340,0,0,2,00,00,0,,,,,
12.3406,350 (front_fog),0,0,2,02,00,0,,,,,
12.3563,108 (fordulatszam),0,0,8,10,0D,48,00,00,00,00,00
12.3563,500 (wheel_pos),0,0,2,00,6A,0,,,,,
12.4370,108 (fordulatszam),0,0,8,10,0D,48,00,00,00,00,00
12.5052,11A,0,0,3,00,00,00,0,,,,
12.5396,145,0,0,8,00,00,06,7D,00,00,00,00
12.5396,108 (fordulatszam),0,0,8,10,0D,48,00,00,00,00,00
12.6379,108 (fordulatszam),0,0,8,10,0D,48,00,00,00,00,00
12.7197,445,0,0,2,00,5B,0,,,,,
12.7834,108 (fordulatszam),0,0,8,10,0D,48,00,00,00,00,00
12.7834,130,0,0,5,00,49,B9,49,00,0,,
12.7845,440,0,0,8,50,68,C0,00,00,C0,C0,12
12.8290,360 (fek),0,0,3,00,00,00,0,,,,
12.8590,108 (fordulatszam),0,0,8,10,0D,48,00,00,00,00,00
12.8590,170,0,0,1,40,0,,,,,,
12.9361,108 (fordulatszam),0,0,8,10,0D,48,00,00,00,00,00
12.9873,330,0,0,1,0F,0,,,,,,
12.9873,155 (klima),0,0,3,00,00,22,0,,,,
13.0369,108 (fordulatszam),0,0,8,10,0D,48,00,00,00,00,00
13.0741,370,0,0,3,00,00,00,0,,,,
13.0980,190,0,0,5,00,00,9D,07,C0,0,,
13.1304,108 (fordulatszam),0,0,8,10,0D,48,00,00,00,00,00
13.1544,305,0,0,3,00,81,74,0,,,,
13.2752,420 (jobbelso_ajto),0,0,5,00,00,00,00,00,0,,
13.3424,235 (brightness),0,0,2,00,00,0,,,,,
13.3424,23A (light_switch),0,0,3,00,00,00,0,,,,
13.3424,426,0,0,1,01,0,,,,,,
13.3424,220 (kezifek),0,0,1,08,0,,,,,,
13.7223,445,0,0,2,00,5B,0,,,,,
13.7565,440,0,0,8,50,68,C4,00,00,C0,C0,12
13.7588,626,0,0,8,00,11,00,00,00,00,00,00
14.3253,170,0,0,1,40,0,,,,,,
14.6649,305,0,0,3,00,81,74,0,,,,
14.7310,445,0,0,2,00,5B,0,,,,,
14.7573,440,0,0,8,50,68,C8,00,00,C0,C0,12
14.8089,235 (brightness),0,0,2,00,00,0,,,,,
15.7301,445,0,0,2,00,5B,0,,,,,
15.7850,440,0,0,8,50,68,CC,00,00,C0,C0,12
15.8332,170,0,0,1,40,0,,,,,,
16.1686,305,0,0,3,00,81,74,0,,,,
16.3079,235 (brightness),0,0,2,00,00,0,,,,,
16.7205,445,0,0,2,00,5B,0,,,,,
16.7556,440,0,0,8,50,68,D0,00,00,C0,C0,12
16.7569,626,0,0,8,00,11,00,00,00,00,00,00
17.3301,170,0,0,1,40,0,,,,,,
17.6728,305,0,0,3,00,81,74,0,,,,
17.7534,445,0,0,2,00,5B,0,,,,,
17.7534,440,0,0,8,50,68,D4,00,00,C0,C0,12
17.8075,235 (brightness),0,0,2,00,00,0,,,,,
18.7293,445,0,0,2,00,5B,0,,,,,
18.7530,440,0,0,8,50,68,D8,00,00,C0,C0,12
18.8340,170,0,0,1,40,0,,,,,,
19.1704,305,0,0,3,00,81,74,0,,,,
19.3080,235 (brightness),0,0,2,00,00,0,,,,,
19.7151,445,0,0,2,00,5B,0,,,,,
19.7530,440,0,0,8,50,68,DC,00,00,C0,C0,12
19.7530,626,0,0,8,00,11,00,00,00,00,00,00
20.3241,170,0,0,1,40,0,,,,,,
20.6669,305,0,0,3,00,81,74,0,,,,
20.7188,445,0,0,2,00,5B,0,,,,,
20.7520,440,0,0,8,50,68,E0,00,00,C0,C0,12
20.8116,235 (brightness),0,0,2,00,00,0,,,,,
21.7286,445,0,0,2,00,5B,0,,,,,
21.7530,440,0,0,8,50,68,E4,00,00,C0,C0,12
21.8344,170,0,0,1,40,0,,,,,,
22.1751,305,0,0,3,00,81,74,0,,,,
22.3231,235 (brightness),0,0,2,00,00,0,,,,,
22.7153,445,0,0,2,00,5B,0,,,,,
22.7548,440,0,0,8,50,68,E8,00,00,C0,C0,12
22.7572,626,0,0,8,00,11,00,00,00,00,00,00
23.3227,170,0,0,1,40,0,,,,,,
23.6666,305,0,0,3,00,81,74,0,,,,
23.7302,445,0,0,2,00,5B,0,,,,,
23.7544,440,0,0,8,50,68,EC,00,00,C0,C0,12
23.8268,235 (brightness),0,0,2,00,00,0,,,,,
24.7244,445,0,0,2,00,5B,0,,,,,
24.7529,440,0,0,8,50,6C,00,00,00,C0,C0,12
24.8342,170,0,0,1,40,0,,,,,,
25.1642,305,0,0,3,00,81,74,0,,,,
25.3266,235 (brightness),0,0,2,00,00,0,,,,,
25.7282,445,0,0,2,00,5B,0,,,,,
25.7860,440,0,0,8,50,6C,04,00,00,C0,C0,12
26.1472,626,0,0,8,00,10,00,00,00,00,00,00
26.3345,170,0,0,1,40,0,,,,,,
26.6741,305,0,0,3,00,81,74,0,,,,
26.7215,445,0,0,2,00,5B,0,,,,,
26.7617,440,0,0,8,50,6E,00,00,00,C0,C0,12
26.8208,235 (brightness),0,0,2,00,00,0,,,,,
27.7195,445,0,0,2,00,5B,0,,,,,
27.7542,440,0,0,8,50,6E,04,00,00,C0,C0,12
27.8286,170,0,0,1,40,0,,,,,,
28.1693,305,0,0,3,00,81,74,0,,,,
28.3285,235 (brightness),0,0,2,00,00,0,,,,,
28.7290,445,0,0,2,00,5B,0,,,,,
28.7528,440,0,0,8,50,6E,08,00,00,C0,C0,12
29.3261,170,0,0,1,40,0,,,,,,
29.6710,305,0,0,3,00,81,74,0,,,,
29.7260,445,0,0,2,00,5B,0,,,,,
29.7685,440,0,0,8,50,6E,0C,00,00,C0,C0,12
29.8189,235 (brightness),0,0,2,00,00,0,,,,,
30.7236,445,0,0,2,00,5B,0,,,,,
30.8058,440,0,0,8,50,6E,10,00,00,C0,C0,12
30.8338,170,0,0,1,40,0,,,,,,
31.1675,305,0,0,3,00,81,74,0,,,,
31.3228,235 (brightness),0,0,2,00,00,0,,,,,
31.7226,445,0,0,2,00,5B,0,,,,,
31.7845,440,0,0,8,50,6E,14,00,00,C0,C0,12
32.0519,305,0,0,3,00,81,76,0,,,,
32.3342,170,0,0,1,40,0,,,,,,
32.6768,305,0,0,3,00,81,76,0,,,,
32.7408,445,0,0,2,00,5B,0,,,,,
32.7645,440,0,0,8,50,6E,18,00,00,C0,C0,12
32.8192,235 (brightness),0,0,2,00,00,0,,,,,
33.7165,445,0,0,2,00,5B,0,,,,,
33.7548,440,0,0,8,50,6E,1C,00,00,C0,C0,12
33.8200,170,0,0,1,40,0,,,,,,
